{
    "source": "mockoon:1.13.0",
    "data": [
        {
            "type": "environment",
            "item": {
                "uuid": "",
                "lastMigration": 13,
                "name": "API Plano Saude",
                "endpointPrefix": "",
                "latency": 0,
                "port": 3001,
                "routes": [
                    {
                        "uuid": "",
                        "documentation": "Situação de plano de saúde",
                        "method": "get",
                        "endpoint": "planos/pessoa-fisica/:nome",
                        "responses": [
                            {
                                "uuid": "",
                                "body": "{\n  \"mensagem\": \"Não foi possível encontrar pessoa com id = 1\"\n}",
                                "latency": 0,
                                "statusCode": 404,
                                "label": "Situação de plano de saúde não foi recuperado devido a não encontrar pessoa pelo nome",
                                "headers": [
                                    {
                                        "key": "Content-Type",
                                        "value": "application/json"
                                    }
                                ],
                                "filePath": "",
                                "sendFileAsBody": false,
                                "rules": [
                                    {
                                        "target": "params",
                                        "modifier": "nome",
                                        "value": "!(inativo|ativo)",
                                        "isRegex": true
                                    }
                                ],
                                "rulesOperator": "OR",
                                "disableTemplating": false
                            },
                            {
                                "uuid": "",
                                "body": "{\n  \"situacao\": true\n}",
                                "latency": 0,
                                "statusCode": 200,
                                "label": "Situação de plano de saúde de uma pessoa",
                                "headers": [
                                    {
                                        "key": "Content-Type",
                                        "value": "application/json"
                                    }
                                ],
                                "filePath": "",
                                "sendFileAsBody": false,
                                "rules": [
                                    {
                                        "target": "params",
                                        "modifier": "nome",
                                        "value": "ativo",
                                        "isRegex": false
                                    }
                                ],
                                "rulesOperator": "OR",
                                "disableTemplating": false
                            },
                            {
                                "uuid": "",
                                "body": "{\n  \"situacao\": false\n}",
                                "latency": 0,
                                "statusCode": 200,
                                "label": "Situação de plano de saúde de uma pessoa",
                                "headers": [
                                    {
                                        "key": "Content-Type",
                                        "value": "application/json"
                                    }
                                ],
                                "filePath": "",
                                "sendFileAsBody": false,
                                "rules": [
                                    {
                                        "target": "params",
                                        "modifier": "nome",
                                        "value": "inativo",
                                        "isRegex": false
                                    }
                                ],
                                "rulesOperator": "OR",
                                "disableTemplating": false
                            }
                        ],
                        "enabled": true,
                        "randomResponse": false
                    }
                ],
                "proxyMode": false,
                "proxyHost": "",
                "https": false,
                "cors": true,
                "headers": [],
                "proxyReqHeaders": [
                    {
                        "key": "",
                        "value": ""
                    }
                ],
                "proxyResHeaders": [
                    {
                        "key": "",
                        "value": ""
                    }
                ]
            }
        }
    ]
}